%YAML 1.1
%TAG !u! tag:unity3d.com,2011:
--- !u!114 &11400000
MonoBehaviour:
  m_ObjectHideFlags: 0
  m_PrefabParentObject: {fileID: 0}
  m_PrefabInternal: {fileID: 0}
  m_GameObject: {fileID: 0}
  m_Enabled: 1
  m_EditorHideFlags: 0
  m_Script: {fileID: 11500000, guid: cf5f969f960bef8449fee2204a37e5a3, type: 3}
  m_Name: Demo_Print
  m_EditorClassIdentifier: 
  type: 0
  instanced: 1
  forceForward: 1
  priority: 10
  transparencyType: 1
  cutoff: 0.01
  tiling: {x: 0, y: 0}
  offset: {x: 0, y: 0}
  maskMethod: 0
  masks: 00000000
  projectionLimit: 80
  _Cutoff: 8
  _TilingOffset: 321
  _MaskBase: 322
  _MaskLayers: 323
  albedo:
    texture: {fileID: 2800000, guid: 05c2532654084394fa19a97a99d61c78, type: 3}
    color: {r: 1, g: 1, b: 1, a: 1}
    _MainTex: 5
    _Color: 6
  metallic:
    texture: {fileID: 0}
    metallicity: 0
    glossiness: 0
    _MetallicGlossMap: 266
    _Metallic: 276
    _Glossiness: 274
  normal:
    texture: {fileID: 0}
    strength: 1
    _BumpMap: 1
    _BumpScale: 271
  emissive:
    texture: {fileID: 0}
    color: {r: 1, g: 0.7427049, b: 0.3270744, a: 1}
    intensity: 2.24
    _EmissionMap: 265
    _EmissionColor: 69
